{
  "version": "1.0.0-*",
  "frameworks": {
    "net45+win+wpa81+wp80": {
      "bin": {
        "assembly": "../../packages/Microsoft.Composition.1.0.30/lib/portable-net45+win8+wp8+wpa81/System.Composition.Convention.dll"
      },
      "dependencies": {
        "System.Composition.AttributedModel": "1.0.0-*"
      }
    }
  }
}